@startuml QR_create_sequence
title //**Create QR-code**//
actor "Receiver" as A 
participant "Payment microservice" as tc order 3 
participant "User interface" as UI order 1 
participant "Integration" as ip order 4
participant "3rd party provider" as P order 5

autonumber "<b>00:"

/'
        Create QR-codes
'/
A -> UI :display QR-code
    activate UI
    UI -> tc :create QR-code request
        activate tc 
        tc -> tc ://check link for QR-code 
alt there is no QR-code link in DB 
        tc -> ip :createCollectingRequest\n//create link request
            activate ip
            ip -> P :POST rest/v2/link/ext\n//generate link request
                activate P
                P -> P : //generate link
                P --> ip : //link
                deactivate P
            ip --> tc : //link
            deactivate ip
        tc -> tc ://save link in DB
        tc --> UI ://link
        deactivate tc
else there is QR-code link in DB    
autonumber 4 "<b>00a:"   
        tc --> UI ://link
end
autonumber 11 "<b>00:"
    UI -> UI : create QR-code from link
    UI --> A : QR-code
    deactivate UI  
@enduml